{
  "AWSEBDockerrunVersion": "1",
  "Image": {
    "Name": "public.ecr.aws/x7z4k2s5/generalb2s/springboot-docker-beanstalk",
    "Update": "true"
  },
  "Ports": [
    {
      "ContainerPort": "8080"
    }
  ]
}